{
  "name": "OAuthAccessToken",
  "base": "PersistedModel",
  "properties": {
    "id": {
      "type": "string",
      "id": true,
      "length": 300,
      "generated": false
    },
    "appId": {
      "type": "string",
      "length": 128,
      "index": true
    },
    "userId": {
      "type": "string",
      "index": true
    },
	"disable": {
      "type": "Boolean"
    },
    "issuedAt": {
      "type": "date",
      "index": true
    },
    "expiresIn": "number",
    "expiredAt": {
      "type": "date",
      "index": true
    },
    "scopes": [ "string" ],
    "parameters": [
      {
        "name": "string",
        "value": "string"
      }
    ],
    "authorizationCode": {
      "type": "string",
      "length": 300,
      "index": true
    },
    "refreshToken": {
      "type": "string",
      "length": 300,
      "index": true
    },
    "tokenType": {
      "type": "string",
      "enum": [ "Bearer", "MAC" ]
    },
    "hash": "string"
  },
  "relations": {
    "application": {
      "type": "belongsTo",
      "model": "OAuthClientApplication",
      "foreignKey": "appId"
    },
    "user": {
      "type": "belongsTo",
      "model": "User",
      "foreignKey": "userId"
    }
  }
}

