{
  "06f6133efc10bf1f9a2c6b5161c66fba": "요청 본문을 구문 분석할 수 없습니다. {{bodyParser}} 미들웨어를 사용하십시오.",
  "083123c0a745a514ce06fa527c151a46": "{{oauth2orize.authorization}} 미들웨어에 {{server}} 인수가 필요함",
  "092f3dd9c9bde61eed97f67459b46a7e": "지원되지 않는 응답 유형: {0}",
  "102a3213ff01fc1b03faa5cbe720e6c0": "올바르지 않은 권한 코드",
  "10b283f781f47e879e25e3b3b84f85e3": "{0}이(가) 권한을 거부함",
  "12df3715215d39fdb1c5c19775091f31": "{{OAuth2orize}}에서는 본문 구문 분석이 필요합니다. {{app.use(express.bodyParser())}}을(를) 잊으셨습니까?",
  "14b06036ad206e2b038840c24e677b4d": "{{OAuth2orize}}에는 트랜잭션 지원이 필요합니다. {{oauth2orize.transactionLoader(...)}}을(를) 잊으셨습니까?",
  "19d7beb3c393b20162c2c43135b4f1c0": "권한 코드가 만료됨",
  "1e1b2073df0a8963670e9ed1e181dfe8": "올바르지 않은 {{JWT}}: {0}",
  "24ff616d05fe6b8dca8859d9dafa729e": "올바르지 않은 클라이언트",
  "2caa676b18561101c92e69d70820b1bf": "{{OAuth2orize}}에는 {{session}} 지원이 필요합니다. {{app.use(express.session(...))}}을(를) 잊으셨습니까?",
  "37086a106da98d5322d134d7905d1817": "필수 매개변수가 누락됨: {{code}}",
  "373b2ad70311b6537ad42719088da022": "클라이언트를 직렬화 해제하는 데 실패했습니다. {{deserializeClient()}}을(를) 사용하여 직렬화 해제 기능을 등록하십시오.",
  "3bffb3bbef4312d6bcbabd3240e79ef2": "{{oauth2orize.code}} 부여에 {{issue}} 콜백이 필요함",
  "3cfcae051965e0da5f704a334e1e884c": "클라이언트 ID 불일치",
  "43a5b5bf0c7dd0bf5fec2601fe347245": "올바르지 않은 요청: {{redirect_uri}}이(가) 누락됨",
  "4428b355c8ba3e248b8fc0857e2181a0": "지원되지 않는 권한 부여 유형: {0}",
  "452b7bd4aed1b69b7c20fb701377c4eb": "권한이 없는 {{redirectURI}}: {0}",
  "47db77dd8ab3aa3c3ec1e6c955c0cc01": "필수 매개변수가 누락됨: {{username}}",
  "53c21d3a92686e2956d527d097e1e1b9": "액세스 토큰에 올바르지 않은 {{user id}}가 있음: {0}",
  "54d8df1f46d3358dd33ba274a537b519": "지원되지 않는 토큰 유형: {0}",
  "5b853ac61fab20ec62d53e183e067ec3": "클라이언트를 직렬화하는 데 실패했습니다. {{serializeClient()}}을(를) 사용하여 직렬화 기능을 등록하십시오.",
  "5bc4d117f87ba20efb8cdd4c988ed46d": "{{oauth2orize.transactionLoader}} 미들웨어에 {{server}} 인수가 필요함",
  "6d3b5c2b2c7c20cd8907a0b090f0e89c": "올바르지 않은 새로 고치기 토큰",
  "6e0122e493bd949f408c1421fc757b95": "{{OAuth 2.0}} 트랜잭션에 대한 경로 재지정을 발행할 수 없음",
  "7175ea69be895be338ca9f9168268dab": "{{oauth2orize.decision}} 미들웨어에 {{server}} 인수가 필요함",
  "740f3fb2bd1358d65943e735224d23e5": "필수 매개변수가 누락됨: {{refresh_token}}",
  "76d075ea0325d32667fad67c446e469b": "올바르지 않은 {{JWT}}",
  "8000aa2c64d9c95c406053764fc33f64": "권한이 없는 클라이언트",
  "83459aaa8e2d81c7fad2b899ad0cbf57": "이 애플리케이션에 대해 {{OAuth2}} 컴포넌트가 구성되지 않았습니다.",
  "839544ec984d6290cd45669efdd39699": "{{uri}} 불일치 항목 경로 재지정",
  "8782860f8d60f2bdb6f67d623dd7e51f": "{{oauth2orize.authorization}} 미들웨어에 {{validate}} 기능이 필요함",
  "9508d060bc6fd6e25cb4d0c00ea0480d": "충분하지 않은 범위",
  "a198c4335c42739230d7d8afacdc109d": "{{OAuth 2.0 jwtBearer}} 교환 미들웨어에 {{issue}} 기능이 필요합니다.",
  "a23d7ec09a60c8bbd119d8287d8b5805": "{{oauth2orize.revoke}} 미들웨어에 {{revokeToken}} 기능이 필요함",
  "a2f3ad97b7b05618b6722b8f07e9f805": "{{OAuth 2.0 JWT}} 전달자 전략에 확인 콜백이 필요함",
  "a7b39a5a13fdba4772a83e07cb864156": "세션에서 {{OAuth 2.0}} 트랜잭션을 로드할 수 없음",
  "a82c6b0f0db10b6e198e99068e765570": "{{OAuth 2.0 JWT}} 전달자 전략에 대상(audience) 옵션이 필요함",
  "aaee2c79ab90ccc63b9d46795e19620a": "{{oauth2orize.clientCredentials}} 교환에 발행 콜백이 필요함",
  "ae02475e560f64afdcf6d02bc80dcb0e": "올바르지 않은 클라이언트 신임 정보",
  "b1af8f34c3d25bd59189205046665bfd": "필수 매개변수가 누락됨: {0}",
  "b1eb21b6d32dde679f9b4bf0b2e0939d": "{{MACStrategy}}에 확인 콜백이 필요함",
  "bac74f7415259e303903cfc8a7bcc4df": "{{oauth2orize.token}} 미들웨어에 {{server}} 인수가 필요함",
  "bcb1c003530e6fb715ad605ea7fe83d9": "{{oauth2orize.token}} 부여에 {{issue}} 콜백이 필요함",
  "cbd12265f4ab78b30a0977e37aefcf37": "필수 매개변수가 누락됨: {{password}}",
  "cdee717bf439af4c84eabb54b82c13af": "{{oauth2orize.authorizationCode}} 교환에 발행 콜백이 필요함",
  "d36b1a9f8719a56a091ed6c89d3cd1fa": "권한 부여 서버에서 요청을 거부함",
  "d3dd8b2220bba70a6e7e44af24a4157c": "필수 매개변수가 누락됨: {{token}}",
  "d837f7c0309bf4816cbbb22b57473733": "{{oauth2orize.password}} 교환에 {{issue}} 콜백이 필요함",
  "d83b55a5dfd3e16ca22699e39b072f3f": "액세스 토큰에 올바르지 않은 {{app id}}가 있음: {0}",
  "db8b02ad229f45cbb12e0d9845b09eb2": "{{OAuth 2.0 JWT}} 전달자 전략에 키 콜백이 필요함",
  "e173a3cecca19bcbf528408adc001750": "권한이 없는 응답 유형: {0}",
  "e82c91e82424949d4390135e5e8adf1c": "올바르지 않은 {{MAC}} 토큰",
  "eb30f051fcf0e7338bf4d8489f583378": "권한이 없는 {{scope}}: {0}",
  "ec30fea412580b611d7a274ee1163e5c": "필수 매개변수가 누락됨: {{response_type}}",
  "ec9ddf242c3da3b5cf44def6398706ec": "{{oauth2orize.refreshToken}} 교환에 {{issue}} 콜백이 필요함",
  "ed5c8e0055b1cae433e4c393ae04d555": "올바르지 않은 항목: {0}",
  "f06abf2e08aba65a62f4486bc2418413": "{{oauth2orize.revoke}} 미들웨어에 {{server}} 인수가 필요함",
  "f24b75ecdc45edb84b0c9fec3b6f1e5b": "{{OAuth 2.0}} 트랜잭션을 로드할 수 없음: {0}",
  "f483b2bebd08d285c7009c6812f5ba24": "액세스 토큰이 만료됨",
  "f50708df489d7811db692c0b601483f8": "필수 매개변수가 누락됨: {{client_id}}",
  "fa925eb4771bd2897f14b1de78ca0ed2": "올바르지 않은 주제: {0}",
  "fcdd5cf7956698312e899ddb708abbaf": "어설션 매개변수가 누락됨",
  "fef19f407c562658e0132f1625ce968b": "권한이 없는 부여 유형: {0}",
  "ff7883d90a5fe850e026885759165406": "올바르지 않은 자원 소유자 신임 정보"
}

